,Units,scenario,region,technology,Year,value
0,EJ,"Reference,date=2020-3-7T00:07:58-022:00",EU-15,Biomass,1990-01-01,0.0662694
1,EJ,"Reference,date=2020-3-7T00:07:58-022:00",EU-15,Biomass,2005-01-01,0.235798
2,EJ,"Reference,date=2020-3-7T00:07:58-022:00",EU-15,Biomass,2010-01-01,0.360485
3,EJ,"Reference,date=2020-3-7T00:07:58-022:00",EU-15,Biomass,2015-01-01,0.290779
4,EJ,"Reference,date=2020-3-7T00:07:58-022:00",EU-15,Biomass,2020-01-01,0.33096
5,EJ,"Reference,date=2020-3-7T00:07:58-022:00",EU-15,Biomass,2025-01-01,0.37178849999999997
6,EJ,"Reference,date=2020-3-7T00:07:58-022:00",EU-15,Biomass,2030-01-01,0.4086457
7,EJ,"Reference,date=2020-3-7T00:07:58-022:00",EU-15,Biomass,2035-01-01,0.4546279
8,EJ,"Reference,date=2020-3-7T00:07:58-022:00",EU-15,Biomass,2040-01-01,0.5202348
9,EJ,"Reference,date=2020-3-7T00:07:58-022:00",EU-15,Biomass,2045-01-01,0.5574319999999999
10,EJ,"Reference,date=2020-3-7T00:07:58-022:00",EU-15,Biomass,2050-01-01,0.598735
11,EJ,"Reference,date=2020-3-7T00:07:58-022:00",EU-15,Biomass,2055-01-01,0.630754
12,EJ,"Reference,date=2020-3-7T00:07:58-022:00",EU-15,Biomass,2060-01-01,0.6675340000000001
13,EJ,"Reference,date=2020-3-7T00:07:58-022:00",EU-15,Biomass,2065-01-01,0.708639
14,EJ,"Reference,date=2020-3-7T00:07:58-022:00",EU-15,Biomass,2070-01-01,0.7679165
15,EJ,"Reference,date=2020-3-7T00:07:58-022:00",EU-15,Biomass,2075-01-01,0.8182843000000001
16,EJ,"Reference,date=2020-3-7T00:07:58-022:00",EU-15,Biomass,2080-01-01,0.8830625000000001
17,EJ,"Reference,date=2020-3-7T00:07:58-022:00",EU-15,Biomass,2085-01-01,0.944345
18,EJ,"Reference,date=2020-3-7T00:07:58-022:00",EU-15,Biomass,2090-01-01,0.989187
19,EJ,"Reference,date=2020-3-7T00:07:58-022:00",EU-15,Biomass,2095-01-01,1.022329
20,EJ,"Reference,date=2020-3-7T00:07:58-022:00",EU-15,Biomass,2100-01-01,1.046899
21,EJ,"Reference,date=2020-3-7T00:07:58-022:00",EU-15,Coal,1990-01-01,2.8626579
22,EJ,"Reference,date=2020-3-7T00:07:58-022:00",EU-15,Coal,2005-01-01,2.6550456999999996
23,EJ,"Reference,date=2020-3-7T00:07:58-022:00",EU-15,Coal,2010-01-01,2.1716640000000003
24,EJ,"Reference,date=2020-3-7T00:07:58-022:00",EU-15,Coal,2015-01-01,2.3184882
25,EJ,"Reference,date=2020-3-7T00:07:58-022:00",EU-15,Coal,2020-01-01,2.5373498000000003
26,EJ,"Reference,date=2020-3-7T00:07:58-022:00",EU-15,Coal,2025-01-01,2.6785385
27,EJ,"Reference,date=2020-3-7T00:07:58-022:00",EU-15,Coal,2030-01-01,2.7957973000000003
28,EJ,"Reference,date=2020-3-7T00:07:58-022:00",EU-15,Coal,2035-01-01,2.919185
29,EJ,"Reference,date=2020-3-7T00:07:58-022:00",EU-15,Coal,2040-01-01,3.1778852
30,EJ,"Reference,date=2020-3-7T00:07:58-022:00",EU-15,Coal,2045-01-01,3.3221214999999997
31,EJ,"Reference,date=2020-3-7T00:07:58-022:00",EU-15,Coal,2050-01-01,3.4616118
32,EJ,"Reference,date=2020-3-7T00:07:58-022:00",EU-15,Coal,2055-01-01,3.6038218
33,EJ,"Reference,date=2020-3-7T00:07:58-022:00",EU-15,Coal,2060-01-01,3.7900652999999997
34,EJ,"Reference,date=2020-3-7T00:07:58-022:00",EU-15,Coal,2065-01-01,3.9930306
35,EJ,"Reference,date=2020-3-7T00:07:58-022:00",EU-15,Coal,2070-01-01,4.1834211
36,EJ,"Reference,date=2020-3-7T00:07:58-022:00",EU-15,Coal,2075-01-01,4.2359387
37,EJ,"Reference,date=2020-3-7T00:07:58-022:00",EU-15,Coal,2080-01-01,4.3313902
38,EJ,"Reference,date=2020-3-7T00:07:58-022:00",EU-15,Coal,2085-01-01,4.4638646
39,EJ,"Reference,date=2020-3-7T00:07:58-022:00",EU-15,Coal,2090-01-01,4.5358826
40,EJ,"Reference,date=2020-3-7T00:07:58-022:00",EU-15,Coal,2095-01-01,4.553693699999999
41,EJ,"Reference,date=2020-3-7T00:07:58-022:00",EU-15,Coal,2100-01-01,4.4883461
42,EJ,"Reference,date=2020-3-7T00:07:58-022:00",EU-15,Geothermal,1990-01-01,0.0116137
43,EJ,"Reference,date=2020-3-7T00:07:58-022:00",EU-15,Geothermal,2005-01-01,0.0194286
44,EJ,"Reference,date=2020-3-7T00:07:58-022:00",EU-15,Geothermal,2010-01-01,0.0201663
45,EJ,"Reference,date=2020-3-7T00:07:58-022:00",EU-15,Geothermal,2015-01-01,0.052065699999999986
46,EJ,"Reference,date=2020-3-7T00:07:58-022:00",EU-15,Geothermal,2020-01-01,0.0974652
47,EJ,"Reference,date=2020-3-7T00:07:58-022:00",EU-15,Geothermal,2025-01-01,0.145176
48,EJ,"Reference,date=2020-3-7T00:07:58-022:00",EU-15,Geothermal,2030-01-01,0.197338
49,EJ,"Reference,date=2020-3-7T00:07:58-022:00",EU-15,Geothermal,2035-01-01,0.250227
50,EJ,"Reference,date=2020-3-7T00:07:58-022:00",EU-15,Geothermal,2040-01-01,0.282599
51,EJ,"Reference,date=2020-3-7T00:07:58-022:00",EU-15,Geothermal,2045-01-01,0.28249
52,EJ,"Reference,date=2020-3-7T00:07:58-022:00",EU-15,Geothermal,2050-01-01,0.282409
53,EJ,"Reference,date=2020-3-7T00:07:58-022:00",EU-15,Geothermal,2055-01-01,0.282348
54,EJ,"Reference,date=2020-3-7T00:07:58-022:00",EU-15,Geothermal,2060-01-01,0.28230700000000003
55,EJ,"Reference,date=2020-3-7T00:07:58-022:00",EU-15,Geothermal,2065-01-01,0.282274
56,EJ,"Reference,date=2020-3-7T00:07:58-022:00",EU-15,Geothermal,2070-01-01,0.28225500000000003
57,EJ,"Reference,date=2020-3-7T00:07:58-022:00",EU-15,Geothermal,2075-01-01,0.282273
58,EJ,"Reference,date=2020-3-7T00:07:58-022:00",EU-15,Geothermal,2080-01-01,0.282292
59,EJ,"Reference,date=2020-3-7T00:07:58-022:00",EU-15,Geothermal,2085-01-01,0.28231100000000003
60,EJ,"Reference,date=2020-3-7T00:07:58-022:00",EU-15,Geothermal,2090-01-01,0.28232
61,EJ,"Reference,date=2020-3-7T00:07:58-022:00",EU-15,Geothermal,2095-01-01,0.282325
62,EJ,"Reference,date=2020-3-7T00:07:58-022:00",EU-15,Geothermal,2100-01-01,0.28231300000000004
63,EJ,"Reference,date=2020-3-7T00:07:58-022:00",EU-15,Hydro,1990-01-01,0.939621
64,EJ,"Reference,date=2020-3-7T00:07:58-022:00",EU-15,Hydro,2005-01-01,0.95855
65,EJ,"Reference,date=2020-3-7T00:07:58-022:00",EU-15,Hydro,2010-01-01,1.17152
66,EJ,"Reference,date=2020-3-7T00:07:58-022:00",EU-15,Hydro,2015-01-01,1.14714
67,EJ,"Reference,date=2020-3-7T00:07:58-022:00",EU-15,Hydro,2020-01-01,1.13525
68,EJ,"Reference,date=2020-3-7T00:07:58-022:00",EU-15,Hydro,2025-01-01,1.12336
69,EJ,"Reference,date=2020-3-7T00:07:58-022:00",EU-15,Hydro,2030-01-01,1.1114700000000002
70,EJ,"Reference,date=2020-3-7T00:07:58-022:00",EU-15,Hydro,2035-01-01,1.0995700000000002
71,EJ,"Reference,date=2020-3-7T00:07:58-022:00",EU-15,Hydro,2040-01-01,1.10415
72,EJ,"Reference,date=2020-3-7T00:07:58-022:00",EU-15,Hydro,2045-01-01,1.10873
73,EJ,"Reference,date=2020-3-7T00:07:58-022:00",EU-15,Hydro,2050-01-01,1.11331
74,EJ,"Reference,date=2020-3-7T00:07:58-022:00",EU-15,Hydro,2055-01-01,1.11789
75,EJ,"Reference,date=2020-3-7T00:07:58-022:00",EU-15,Hydro,2060-01-01,1.12247
76,EJ,"Reference,date=2020-3-7T00:07:58-022:00",EU-15,Hydro,2065-01-01,1.12705
77,EJ,"Reference,date=2020-3-7T00:07:58-022:00",EU-15,Hydro,2070-01-01,1.13163
78,EJ,"Reference,date=2020-3-7T00:07:58-022:00",EU-15,Hydro,2075-01-01,1.13621
79,EJ,"Reference,date=2020-3-7T00:07:58-022:00",EU-15,Hydro,2080-01-01,1.14078
80,EJ,"Reference,date=2020-3-7T00:07:58-022:00",EU-15,Hydro,2085-01-01,1.14536
81,EJ,"Reference,date=2020-3-7T00:07:58-022:00",EU-15,Hydro,2090-01-01,1.14994
82,EJ,"Reference,date=2020-3-7T00:07:58-022:00",EU-15,Hydro,2095-01-01,1.15452
83,EJ,"Reference,date=2020-3-7T00:07:58-022:00",EU-15,Hydro,2100-01-01,1.15452
84,EJ,"Reference,date=2020-3-7T00:07:58-022:00",EU-15,Hydrogen,2020-01-01,0.013503200000000002
85,EJ,"Reference,date=2020-3-7T00:07:58-022:00",EU-15,Hydrogen,2025-01-01,0.0235152
86,EJ,"Reference,date=2020-3-7T00:07:58-022:00",EU-15,Hydrogen,2030-01-01,0.035153
87,EJ,"Reference,date=2020-3-7T00:07:58-022:00",EU-15,Hydrogen,2035-01-01,0.0487051
88,EJ,"Reference,date=2020-3-7T00:07:58-022:00",EU-15,Hydrogen,2040-01-01,0.0647841
89,EJ,"Reference,date=2020-3-7T00:07:58-022:00",EU-15,Hydrogen,2045-01-01,0.08524019999999999
90,EJ,"Reference,date=2020-3-7T00:07:58-022:00",EU-15,Hydrogen,2050-01-01,0.10866
91,EJ,"Reference,date=2020-3-7T00:07:58-022:00",EU-15,Hydrogen,2055-01-01,0.11989
92,EJ,"Reference,date=2020-3-7T00:07:58-022:00",EU-15,Hydrogen,2060-01-01,0.134072
93,EJ,"Reference,date=2020-3-7T00:07:58-022:00",EU-15,Hydrogen,2065-01-01,0.149507
94,EJ,"Reference,date=2020-3-7T00:07:58-022:00",EU-15,Hydrogen,2070-01-01,0.161767
95,EJ,"Reference,date=2020-3-7T00:07:58-022:00",EU-15,Hydrogen,2075-01-01,0.176977
96,EJ,"Reference,date=2020-3-7T00:07:58-022:00",EU-15,Hydrogen,2080-01-01,0.194731
97,EJ,"Reference,date=2020-3-7T00:07:58-022:00",EU-15,Hydrogen,2085-01-01,0.212039
98,EJ,"Reference,date=2020-3-7T00:07:58-022:00",EU-15,Hydrogen,2090-01-01,0.231812
99,EJ,"Reference,date=2020-3-7T00:07:58-022:00",EU-15,Hydrogen,2095-01-01,0.249288
100,EJ,"Reference,date=2020-3-7T00:07:58-022:00",EU-15,Hydrogen,2100-01-01,0.239255
101,EJ,"Reference,date=2020-3-7T00:07:58-022:00",EU-15,Natural gas,1990-01-01,0.540519
102,EJ,"Reference,date=2020-3-7T00:07:58-022:00",EU-15,Natural gas,2005-01-01,2.2953259999999998
103,EJ,"Reference,date=2020-3-7T00:07:58-022:00",EU-15,Natural gas,2010-01-01,2.7052570000000005
104,EJ,"Reference,date=2020-3-7T00:07:58-022:00",EU-15,Natural gas,2015-01-01,2.830373
105,EJ,"Reference,date=2020-3-7T00:07:58-022:00",EU-15,Natural gas,2020-01-01,3.0468400000000004
106,EJ,"Reference,date=2020-3-7T00:07:58-022:00",EU-15,Natural gas,2025-01-01,3.1584600000000003
107,EJ,"Reference,date=2020-3-7T00:07:58-022:00",EU-15,Natural gas,2030-01-01,3.3446379999999998
108,EJ,"Reference,date=2020-3-7T00:07:58-022:00",EU-15,Natural gas,2035-01-01,3.519662
109,EJ,"Reference,date=2020-3-7T00:07:58-022:00",EU-15,Natural gas,2040-01-01,3.809591
110,EJ,"Reference,date=2020-3-7T00:07:58-022:00",EU-15,Natural gas,2045-01-01,3.956362
111,EJ,"Reference,date=2020-3-7T00:07:58-022:00",EU-15,Natural gas,2050-01-01,4.023628
112,EJ,"Reference,date=2020-3-7T00:07:58-022:00",EU-15,Natural gas,2055-01-01,4.114856
113,EJ,"Reference,date=2020-3-7T00:07:58-022:00",EU-15,Natural gas,2060-01-01,4.020222
114,EJ,"Reference,date=2020-3-7T00:07:58-022:00",EU-15,Natural gas,2065-01-01,3.938104
115,EJ,"Reference,date=2020-3-7T00:07:58-022:00",EU-15,Natural gas,2070-01-01,3.899535
116,EJ,"Reference,date=2020-3-7T00:07:58-022:00",EU-15,Natural gas,2075-01-01,3.941577
117,EJ,"Reference,date=2020-3-7T00:07:58-022:00",EU-15,Natural gas,2080-01-01,3.836548
118,EJ,"Reference,date=2020-3-7T00:07:58-022:00",EU-15,Natural gas,2085-01-01,3.5596349999999997
119,EJ,"Reference,date=2020-3-7T00:07:58-022:00",EU-15,Natural gas,2090-01-01,3.410389
120,EJ,"Reference,date=2020-3-7T00:07:58-022:00",EU-15,Natural gas,2095-01-01,3.3237810000000003
121,EJ,"Reference,date=2020-3-7T00:07:58-022:00",EU-15,Natural gas,2100-01-01,3.395613
122,EJ,"Reference,date=2020-3-7T00:07:58-022:00",EU-15,Nuclear,1990-01-01,2.59272
123,EJ,"Reference,date=2020-3-7T00:07:58-022:00",EU-15,Nuclear,2005-01-01,3.24344
124,EJ,"Reference,date=2020-3-7T00:07:58-022:00",EU-15,Nuclear,2010-01-01,2.97257
125,EJ,"Reference,date=2020-3-7T00:07:58-022:00",EU-15,Nuclear,2015-01-01,3.0926669999999996
126,EJ,"Reference,date=2020-3-7T00:07:58-022:00",EU-15,Nuclear,2020-01-01,3.304423
127,EJ,"Reference,date=2020-3-7T00:07:58-022:00",EU-15,Nuclear,2025-01-01,3.43637
128,EJ,"Reference,date=2020-3-7T00:07:58-022:00",EU-15,Nuclear,2030-01-01,3.53583
129,EJ,"Reference,date=2020-3-7T00:07:58-022:00",EU-15,Nuclear,2035-01-01,3.62291
130,EJ,"Reference,date=2020-3-7T00:07:58-022:00",EU-15,Nuclear,2040-01-01,3.8899299999999997
131,EJ,"Reference,date=2020-3-7T00:07:58-022:00",EU-15,Nuclear,2045-01-01,4.04485
132,EJ,"Reference,date=2020-3-7T00:07:58-022:00",EU-15,Nuclear,2050-01-01,4.2177359999999995
133,EJ,"Reference,date=2020-3-7T00:07:58-022:00",EU-15,Nuclear,2055-01-01,4.387404
134,EJ,"Reference,date=2020-3-7T00:07:58-022:00",EU-15,Nuclear,2060-01-01,4.610602
135,EJ,"Reference,date=2020-3-7T00:07:58-022:00",EU-15,Nuclear,2065-01-01,4.849408
136,EJ,"Reference,date=2020-3-7T00:07:58-022:00",EU-15,Nuclear,2070-01-01,5.04882
137,EJ,"Reference,date=2020-3-7T00:07:58-022:00",EU-15,Nuclear,2075-01-01,5.12246
138,EJ,"Reference,date=2020-3-7T00:07:58-022:00",EU-15,Nuclear,2080-01-01,5.22841
139,EJ,"Reference,date=2020-3-7T00:07:58-022:00",EU-15,Nuclear,2085-01-01,5.33334
140,EJ,"Reference,date=2020-3-7T00:07:58-022:00",EU-15,Nuclear,2090-01-01,5.34957
141,EJ,"Reference,date=2020-3-7T00:07:58-022:00",EU-15,Nuclear,2095-01-01,5.28573
142,EJ,"Reference,date=2020-3-7T00:07:58-022:00",EU-15,Nuclear,2100-01-01,5.0465
143,EJ,"Reference,date=2020-3-7T00:07:58-022:00",EU-15,Oil,1990-01-01,0.6987703
144,EJ,"Reference,date=2020-3-7T00:07:58-022:00",EU-15,Oil,2005-01-01,0.4545105
145,EJ,"Reference,date=2020-3-7T00:07:58-022:00",EU-15,Oil,2010-01-01,0.265218
146,EJ,"Reference,date=2020-3-7T00:07:58-022:00",EU-15,Oil,2015-01-01,0.21367230000000004
147,EJ,"Reference,date=2020-3-7T00:07:58-022:00",EU-15,Oil,2020-01-01,0.20141839999999997
148,EJ,"Reference,date=2020-3-7T00:07:58-022:00",EU-15,Oil,2025-01-01,0.2185289
149,EJ,"Reference,date=2020-3-7T00:07:58-022:00",EU-15,Oil,2030-01-01,0.2316055
150,EJ,"Reference,date=2020-3-7T00:07:58-022:00",EU-15,Oil,2035-01-01,0.2506663
151,EJ,"Reference,date=2020-3-7T00:07:58-022:00",EU-15,Oil,2040-01-01,0.2905878
152,EJ,"Reference,date=2020-3-7T00:07:58-022:00",EU-15,Oil,2045-01-01,0.28197659999999997
153,EJ,"Reference,date=2020-3-7T00:07:58-022:00",EU-15,Oil,2050-01-01,0.2989441
154,EJ,"Reference,date=2020-3-7T00:07:58-022:00",EU-15,Oil,2055-01-01,0.31371340000000003
155,EJ,"Reference,date=2020-3-7T00:07:58-022:00",EU-15,Oil,2060-01-01,0.3196485
156,EJ,"Reference,date=2020-3-7T00:07:58-022:00",EU-15,Oil,2065-01-01,0.3179901
157,EJ,"Reference,date=2020-3-7T00:07:58-022:00",EU-15,Oil,2070-01-01,0.3263459
158,EJ,"Reference,date=2020-3-7T00:07:58-022:00",EU-15,Oil,2075-01-01,0.3293037
159,EJ,"Reference,date=2020-3-7T00:07:58-022:00",EU-15,Oil,2080-01-01,0.3431692
160,EJ,"Reference,date=2020-3-7T00:07:58-022:00",EU-15,Oil,2085-01-01,0.34073600000000004
161,EJ,"Reference,date=2020-3-7T00:07:58-022:00",EU-15,Oil,2090-01-01,0.3373257
162,EJ,"Reference,date=2020-3-7T00:07:58-022:00",EU-15,Oil,2095-01-01,0.3337658
163,EJ,"Reference,date=2020-3-7T00:07:58-022:00",EU-15,Oil,2100-01-01,0.33873590000000003
164,EJ,"Reference,date=2020-3-7T00:07:58-022:00",EU-15,Solar PV,1990-01-01,4.32005e-05
165,EJ,"Reference,date=2020-3-7T00:07:58-022:00",EU-15,Solar PV,2005-01-01,0.00524505
166,EJ,"Reference,date=2020-3-7T00:07:58-022:00",EU-15,Solar PV,2010-01-01,0.0781778
167,EJ,"Reference,date=2020-3-7T00:07:58-022:00",EU-15,Solar PV,2015-01-01,0.09240464200000001
168,EJ,"Reference,date=2020-3-7T00:07:58-022:00",EU-15,Solar PV,2020-01-01,0.11134302299999999
169,EJ,"Reference,date=2020-3-7T00:07:58-022:00",EU-15,Solar PV,2025-01-01,0.130410647
170,EJ,"Reference,date=2020-3-7T00:07:58-022:00",EU-15,Solar PV,2030-01-01,0.15266872199999998
171,EJ,"Reference,date=2020-3-7T00:07:58-022:00",EU-15,Solar PV,2035-01-01,0.17951242900000003
172,EJ,"Reference,date=2020-3-7T00:07:58-022:00",EU-15,Solar PV,2040-01-01,0.14412694599999998
173,EJ,"Reference,date=2020-3-7T00:07:58-022:00",EU-15,Solar PV,2045-01-01,0.16724822500000003
174,EJ,"Reference,date=2020-3-7T00:07:58-022:00",EU-15,Solar PV,2050-01-01,0.18569766799999998
175,EJ,"Reference,date=2020-3-7T00:07:58-022:00",EU-15,Solar PV,2055-01-01,0.203721853
176,EJ,"Reference,date=2020-3-7T00:07:58-022:00",EU-15,Solar PV,2060-01-01,0.22068547
177,EJ,"Reference,date=2020-3-7T00:07:58-022:00",EU-15,Solar PV,2065-01-01,0.23247900000000002
178,EJ,"Reference,date=2020-3-7T00:07:58-022:00",EU-15,Solar PV,2070-01-01,0.239045386
179,EJ,"Reference,date=2020-3-7T00:07:58-022:00",EU-15,Solar PV,2075-01-01,0.252220194
180,EJ,"Reference,date=2020-3-7T00:07:58-022:00",EU-15,Solar PV,2080-01-01,0.263664049
181,EJ,"Reference,date=2020-3-7T00:07:58-022:00",EU-15,Solar PV,2085-01-01,0.251259533
182,EJ,"Reference,date=2020-3-7T00:07:58-022:00",EU-15,Solar PV,2090-01-01,0.22585531
183,EJ,"Reference,date=2020-3-7T00:07:58-022:00",EU-15,Solar PV,2095-01-01,0.19696983200000007
184,EJ,"Reference,date=2020-3-7T00:07:58-022:00",EU-15,Solar PV,2100-01-01,0.158368937
185,EJ,"Reference,date=2020-3-7T00:07:58-022:00",EU-15,Solar Thermal,2010-01-01,0.00249109
186,EJ,"Reference,date=2020-3-7T00:07:58-022:00",EU-15,Solar Thermal,2015-01-01,0.00320258
187,EJ,"Reference,date=2020-3-7T00:07:58-022:00",EU-15,Solar Thermal,2020-01-01,0.00448394
188,EJ,"Reference,date=2020-3-7T00:07:58-022:00",EU-15,Solar Thermal,2025-01-01,0.01163555
189,EJ,"Reference,date=2020-3-7T00:07:58-022:00",EU-15,Solar Thermal,2030-01-01,0.02834132
190,EJ,"Reference,date=2020-3-7T00:07:58-022:00",EU-15,Solar Thermal,2035-01-01,0.05954460000000002
191,EJ,"Reference,date=2020-3-7T00:07:58-022:00",EU-15,Solar Thermal,2040-01-01,0.11576270000000001
192,EJ,"Reference,date=2020-3-7T00:07:58-022:00",EU-15,Solar Thermal,2045-01-01,0.1718683
193,EJ,"Reference,date=2020-3-7T00:07:58-022:00",EU-15,Solar Thermal,2050-01-01,0.23280489999999998
194,EJ,"Reference,date=2020-3-7T00:07:58-022:00",EU-15,Solar Thermal,2055-01-01,0.2875941
195,EJ,"Reference,date=2020-3-7T00:07:58-022:00",EU-15,Solar Thermal,2060-01-01,0.33900159999999996
196,EJ,"Reference,date=2020-3-7T00:07:58-022:00",EU-15,Solar Thermal,2065-01-01,0.37610899999999997
197,EJ,"Reference,date=2020-3-7T00:07:58-022:00",EU-15,Solar Thermal,2070-01-01,0.4038805
198,EJ,"Reference,date=2020-3-7T00:07:58-022:00",EU-15,Solar Thermal,2075-01-01,0.4407892
199,EJ,"Reference,date=2020-3-7T00:07:58-022:00",EU-15,Solar Thermal,2080-01-01,0.49143380000000003
200,EJ,"Reference,date=2020-3-7T00:07:58-022:00",EU-15,Solar Thermal,2085-01-01,0.5594827
201,EJ,"Reference,date=2020-3-7T00:07:58-022:00",EU-15,Solar Thermal,2090-01-01,0.6252419
202,EJ,"Reference,date=2020-3-7T00:07:58-022:00",EU-15,Solar Thermal,2095-01-01,0.6973368
203,EJ,"Reference,date=2020-3-7T00:07:58-022:00",EU-15,Solar Thermal,2100-01-01,0.7846514
204,EJ,"Reference,date=2020-3-7T00:07:58-022:00",EU-15,Wind,1990-01-01,0.00280083
205,EJ,"Reference,date=2020-3-7T00:07:58-022:00",EU-15,Wind,2005-01-01,0.25258
206,EJ,"Reference,date=2020-3-7T00:07:58-022:00",EU-15,Wind,2010-01-01,0.5218189999999999
207,EJ,"Reference,date=2020-3-7T00:07:58-022:00",EU-15,Wind,2015-01-01,0.618318991
208,EJ,"Reference,date=2020-3-7T00:07:58-022:00",EU-15,Wind,2020-01-01,0.746371096
209,EJ,"Reference,date=2020-3-7T00:07:58-022:00",EU-15,Wind,2025-01-01,0.899476687
210,EJ,"Reference,date=2020-3-7T00:07:58-022:00",EU-15,Wind,2030-01-01,1.1093143129999998
211,EJ,"Reference,date=2020-3-7T00:07:58-022:00",EU-15,Wind,2035-01-01,1.3942958330000002
212,EJ,"Reference,date=2020-3-7T00:07:58-022:00",EU-15,Wind,2040-01-01,1.355285503
213,EJ,"Reference,date=2020-3-7T00:07:58-022:00",EU-15,Wind,2045-01-01,1.6788155619999998
214,EJ,"Reference,date=2020-3-7T00:07:58-022:00",EU-15,Wind,2050-01-01,1.9706377270000004
215,EJ,"Reference,date=2020-3-7T00:07:58-022:00",EU-15,Wind,2055-01-01,2.220265946
216,EJ,"Reference,date=2020-3-7T00:07:58-022:00",EU-15,Wind,2060-01-01,2.4398237799999998
217,EJ,"Reference,date=2020-3-7T00:07:58-022:00",EU-15,Wind,2065-01-01,2.5773236
218,EJ,"Reference,date=2020-3-7T00:07:58-022:00",EU-15,Wind,2070-01-01,2.62530593
219,EJ,"Reference,date=2020-3-7T00:07:58-022:00",EU-15,Wind,2075-01-01,2.7700072500000004
220,EJ,"Reference,date=2020-3-7T00:07:58-022:00",EU-15,Wind,2080-01-01,2.99426931
221,EJ,"Reference,date=2020-3-7T00:07:58-022:00",EU-15,Wind,2085-01-01,3.23861056
222,EJ,"Reference,date=2020-3-7T00:07:58-022:00",EU-15,Wind,2090-01-01,3.41153627
223,EJ,"Reference,date=2020-3-7T00:07:58-022:00",EU-15,Wind,2095-01-01,3.5799586999999997
224,EJ,"Reference,date=2020-3-7T00:07:58-022:00",EU-15,Wind,2100-01-01,3.7518826
