,geo,unit,Year,value
0,AT,PR,2019-01-01,0.021625450255433592
1,BE,PR,2019-01-01,0.02796444838983656
2,DE,PR,2019-01-01,0.20266096169919046
3,DK,PR,2019-01-01,0.014173417413188408
4,EL,PR,2019-01-01,0.02618017527073132
5,ES,PR,2019-01-01,0.1145796180810893
6,FI,PR,2019-01-01,0.013469975572018917
7,FR,PR,2019-01-01,0.16358737723778868
8,IE,PR,2019-01-01,0.011971903356920978
9,IT,PR,2019-01-01,0.14734569502708394
10,LU,PR,2019-01-01,0.0014985970587478687
11,NL,PR,2019-01-01,0.042188062826157675
12,PT,PR,2019-01-01,0.025086591512668874
13,SE,PR,2019-01-01,0.024973244813349803
14,UK,PR,2019-01-01,0.1626944814857936
15,AT,PR,2018-01-01,0.0216015817834139
16,BE,PR,2018-01-01,0.0279097824288272
17,DE,PR,2018-01-01,0.20271952108994315
18,DK,PR,2018-01-01,0.014155414769293948
19,EL,PR,2018-01-01,0.02630006031291537
20,ES,PR,2018-01-01,0.11424458801321508
21,FI,PR,2018-01-01,0.01349906192791407
22,FR,PR,2018-01-01,0.16385300704126837
23,IE,PR,2018-01-01,0.011827357734009664
24,IT,PR,2018-01-01,0.14809679749494073
25,LU,PR,2018-01-01,0.0014740270546701982
26,NL,PR,2018-01-01,0.04206839252923359
27,PT,PR,2018-01-01,0.02519788410119764
28,SE,PR,2018-01-01,0.024779711975497935
29,UK,PR,2018-01-01,0.16227281174365915
30,AT,PR,2017-01-01,0.021544405535124635
31,BE,PR,2017-01-01,0.027877575913002623
32,DE,PR,2017-01-01,0.20265670994148824
33,DK,PR,2017-01-01,0.014117829313884677
34,EL,PR,2017-01-01,0.026444532871814433
35,ES,PR,2017-01-01,0.11426354079357334
36,FI,PR,2017-01-01,0.013514999073647524
37,FR,PR,2017-01-01,0.1640715740674293
38,IE,PR,2017-01-01,0.011749489771854029
39,IT,PR,2017-01-01,0.14879558436475765
40,LU,PR,2017-01-01,0.0014505602655706502
41,NL,PR,2017-01-01,0.041948772032747585
42,PT,PR,2017-01-01,0.02531825368405549
43,SE,PR,2017-01-01,0.024546100916589687
44,UK,PR,2017-01-01,0.16170007145446014
45,AT,PR,2016-01-01,0.02144226595750926
46,BE,PR,2016-01-01,0.027876189575311988
47,DE,PR,2016-01-01,0.20252154987566057
48,DK,PR,2016-01-01,0.014065490687603082
49,EL,PR,2016-01-01,0.026576491391645186
50,ES,PR,2016-01-01,0.11445138474124675
51,FI,PR,2016-01-01,0.01352344229717773
52,FR,PR,2016-01-01,0.16422997132022985
53,IE,PR,2016-01-01,0.011647907498715025
54,IT,PR,2016-01-01,0.14950993791035472
55,LU,PR,2016-01-01,0.001420162691852976
56,NL,PR,2016-01-01,0.041844953769107976
57,PT,PR,2016-01-01,0.025486154509838516
58,SE,PR,2016-01-01,0.02427778064727128
59,UK,PR,2016-01-01,0.1611263171264751
60,AT,PR,2015-01-01,0.021258792146389212
61,BE,PR,2015-01-01,0.027826782928358808
62,DE,PR,2015-01-01,0.20106889236805853
63,DK,PR,2015-01-01,0.01401511262797154
64,EL,PR,2015-01-01,0.026887633950921964
65,ES,PR,2015-01-01,0.11502273259259255
66,FI,PR,2015-01-01,0.01354966364338861
67,FR,PR,2015-01-01,0.16456985896674386
68,IE,PR,2015-01-01,0.011583174989666553
69,IT,PR,2015-01-01,0.1505477483347586
70,LU,PR,2015-01-01,0.0013940489538461923
71,NL,PR,2015-01-01,0.04185114946326572
72,PT,PR,2015-01-01,0.02569109907922165
73,SE,PR,2015-01-01,0.02413730694033561
74,UK,PR,2015-01-01,0.16059600301448063
75,AT,PR,2014-01-01,0.02114458313612411
76,BE,PR,2014-01-01,0.02778798161022173
77,DE,PR,2014-01-01,0.2007331091893153
78,DK,PR,2014-01-01,0.013985487914718044
79,EL,PR,2014-01-01,0.027156627943378323
80,ES,PR,2014-01-01,0.11559776639885497
81,FI,PR,2014-01-01,0.013548158323735375
82,FR,PR,2014-01-01,0.1644437301188729
83,IE,PR,2014-01-01,0.011526553111119565
84,IT,PR,2014-01-01,0.15106446927102193
85,LU,PR,2014-01-01,0.0013661315009880011
86,NL,PR,2014-01-01,0.04182619313442522
87,PT,PR,2014-01-01,0.025915194961402422
88,SE,PR,2014-01-01,0.023970587492987076
89,UK,PR,2014-01-01,0.15993342589283502
90,AT,PR,2013-01-01,0.021127807602357555
91,BE,PR,2013-01-01,0.02784250706377777
92,DE,PR,2013-01-01,0.20129181185077707
93,DK,PR,2013-01-01,0.014005348698580111
94,EL,PR,2013-01-01,0.02750663885232548
95,ES,PR,2013-01-01,0.11680953891618266
96,FI,PR,2013-01-01,0.01356550205430711
97,FR,PR,2013-01-01,0.163986574960697
98,IE,PR,2013-01-01,0.01152344262699432
99,IT,PR,2013-01-01,0.14920005688203974
100,LU,PR,2013-01-01,0.001342480432350098
101,NL,PR,2013-01-01,0.04194527976674114
102,PT,PR,2013-01-01,0.02621593640480566
103,SE,PR,2013-01-01,0.02388764943724995
104,UK,PR,2013-01-01,0.15974942445081433
105,AT,PR,2012-01-01,0.021087025168840676
106,BE,PR,2012-01-01,0.027777615249624212
107,DE,PR,2012-01-01,0.20145719228590037
108,DK,PR,2012-01-01,0.013995574201075138
109,EL,PR,2012-01-01,0.02780399120730854
110,ES,PR,2012-01-01,0.11741707361410413
111,FI,PR,2012-01-01,0.013546029270110239
112,FR,PR,2012-01-01,0.1637104631899309
113,IE,PR,2012-01-01,0.011509635800440232
114,IT,PR,2012-01-01,0.1489568404037398
115,LU,PR,2012-01-01,0.0013162974725199048
116,NL,PR,2012-01-01,0.04195863372559259
117,PT,PR,2012-01-01,0.026439654230229988
118,SE,PR,2012-01-01,0.023782388723647845
119,UK,PR,2012-01-01,0.15924158545693545
120,AT,PR,2011-01-01,0.0210739904993165
121,BE,PR,2011-01-01,0.027680334462515603
122,DE,PR,2011-01-01,0.20185861860681778
123,DK,PR,2011-01-01,0.013991919637900021
124,EL,PR,2011-01-01,0.02798921398174091
125,ES,PR,2011-01-01,0.1174261878938669
126,FI,PR,2011-01-01,0.01352552802013238
127,FR,PR,2011-01-01,0.16350258323439845
128,IE,PR,2011-01-01,0.011501470630008713
129,IT,PR,2011-01-01,0.14937628839923242
130,LU,PR,2011-01-01,0.0012879164273284865
131,NL,PR,2011-01-01,0.04191012258202051
132,PT,PR,2011-01-01,0.02660358912445464
133,SE,PR,2011-01-01,0.023691910119688336
134,UK,PR,2011-01-01,0.15858032638057834
135,AT,PR,2010-01-01,0.021016464914826154
136,BE,PR,2010-01-01,0.02727804374690688
137,DE,PR,2010-01-01,0.20585102406725145
138,DK,PR,2010-01-01,0.013927873472292228
139,EL,PR,2010-01-01,0.027981098706723023
140,ES,PR,2010-01-01,0.11698110146978156
141,FI,PR,2010-01-01,0.01346658110143757
142,FR,PR,2010-01-01,0.16271056827462532
143,IE,PR,2010-01-01,0.011448393321473118
144,IT,PR,2010-01-01,0.1489488431992415
145,LU,PR,2010-01-01,0.001263422355807966
146,NL,PR,2010-01-01,0.04171007726050185
147,PT,PR,2010-01-01,0.02660759690412427
148,SE,PR,2010-01-01,0.02350532889558955
149,UK,PR,2010-01-01,0.15730358230941757
150,AT,PR,2009-01-01,0.021049297798834937
151,BE,PR,2009-01-01,0.027155933018223985
152,DE,PR,2009-01-01,0.20708954893598464
153,DK,PR,2009-01-01,0.013918672063187813
154,EL,PR,2009-01-01,0.028018777138668686
155,ES,PR,2009-01-01,0.1167731106249905
156,FI,PR,2009-01-01,0.01345112527927149
157,FR,PR,2009-01-01,0.16251068781814842
158,IE,PR,2009-01-01,0.011418190638014645
159,IT,PR,2009-01-01,0.1490006548311706
160,LU,PR,2009-01-01,0.0012462897090409015
161,NL,PR,2009-01-01,0.04163336713989924
162,PT,PR,2009-01-01,0.026675938489675723
163,SE,PR,2009-01-01,0.023376068914714533
164,UK,PR,2009-01-01,0.1566823376001739
165,AT,PR,2008-01-01,0.02108552866450838
166,BE,PR,2008-01-01,0.02707231663444305
167,DE,PR,2008-01-01,0.20866741142740775
168,DK,PR,2008-01-01,0.013897460395212008
169,EL,PR,2008-01-01,0.028072461840021858
170,ES,PR,2008-01-01,0.11590695682940658
171,FI,PR,2008-01-01,0.013452534339870701
172,FR,PR,2008-01-01,0.16244912008624712
173,IE,PR,2008-01-01,0.011313728471130885
174,IT,PR,2008-01-01,0.14885995600961038
175,LU,PR,2008-01-01,0.0012278732774394009
176,NL,PR,2008-01-01,0.0416366115635441
177,PT,PR,2008-01-01,0.026784187122873445
178,SE,PR,2008-01-01,0.02330610578355219
179,UK,PR,2008-01-01,0.15626774755473213
180,AT,PR,2007-01-01,0.021157621887595224
181,BE,PR,2007-01-01,0.027036581047168006
182,DE,PR,2007-01-01,0.2102608983502737
183,DK,PR,2007-01-01,0.01391374698562375
184,EL,PR,2007-01-01,0.028189802661996693
185,ES,PR,2007-01-01,0.11439561269105937
186,FI,PR,2007-01-01,0.013479178350200249
187,FR,PR,2007-01-01,0.16257163122389479
188,IE,PR,2007-01-01,0.011086170828236057
189,IT,PR,2007-01-01,0.14872369190042395
190,LU,PR,2007-01-01,0.0012163472118005187
191,NL,PR,2007-01-01,0.041784000738901296
192,PT,PR,2007-01-01,0.02690389289678971
193,SE,PR,2007-01-01,0.023278427891503882
194,UK,PR,2007-01-01,0.1560023953345328
195,AT,PR,2006-01-01,0.021198196591166958
196,BE,PR,2006-01-01,0.026994705313626154
197,DE,PR,2006-01-01,0.21171234968638628
198,DK,PR,2006-01-01,0.013938477005857848
199,EL,PR,2006-01-01,0.028261656315044657
200,ES,PR,2006-01-01,0.11302378678714492
201,FI,PR,2006-01-01,0.01349706759322298
202,FR,PR,2006-01-01,0.16238258336659653
203,IE,PR,2006-01-01,0.010807135649124708
204,IT,PR,2006-01-01,0.1491170567483254
205,LU,PR,2006-01-01,0.001204678731754553
206,NL,PR,2006-01-01,0.041948545441587555
207,PT,PR,2006-01-01,0.026996261606739663
208,SE,PR,2006-01-01,0.023235897904839882
209,UK,PR,2006-01-01,0.15568160125858194
210,AT,PR,2005-01-01,0.021177012265379155
211,BE,PR,2005-01-01,0.02697259514262641
212,DE,PR,2005-01-01,0.21302829094265885
213,DK,PR,2005-01-01,0.013972975705359818
214,EL,PR,2005-01-01,0.02832578856432574
215,ES,PR,2005-01-01,0.11179696936471158
216,FI,PR,2005-01-01,0.01352163408235384
217,FR,PR,2005-01-01,0.16208799516312494
218,IE,PR,2005-01-01,0.010616890246508663
219,IT,PR,2005-01-01,0.1494403981263092
220,LU,PR,2005-01-01,0.0011909579091905168
221,NL,PR,2005-01-01,0.0421030617115357
222,PT,PR,2005-01-01,0.027098654950372395
223,SE,PR,2005-01-01,0.023268626444975717
224,UK,PR,2005-01-01,0.15539814938056748
225,AT,PR,2004-01-01,0.021152379623321903
226,BE,PR,2004-01-01,0.027007316202860687
227,DE,PR,2004-01-01,0.21439675590739038
228,DK,PR,2004-01-01,0.014021726344980542
229,EL,PR,2004-01-01,0.02842035782881193
230,ES,PR,2004-01-01,0.11052769628920578
231,FI,PR,2004-01-01,0.013559565606105255
232,FR,PR,2004-01-01,0.1618197502459551
233,IE,PR,2004-01-01,0.010465952936227907
234,IT,PR,2004-01-01,0.14936004916192386
235,LU,PR,2004-01-01,0.001181872932969288
236,NL,PR,2004-01-01,0.042234323817804946
237,PT,PR,2004-01-01,0.027206379287484615
238,SE,PR,2004-01-01,0.023316558440883702
239,UK,PR,2004-01-01,0.1553293153740741
240,AT,PR,2003-01-01,0.021159889188402396
241,BE,PR,2003-01-01,0.027051990901094544
242,DE,PR,2003-01-01,0.21560594350074722
243,DK,PR,2003-01-01,0.01406303362429743
244,EL,PR,2003-01-01,0.02851465421055404
245,ES,PR,2003-01-01,0.10926451701941982
246,FI,PR,2003-01-01,0.013600112648318575
247,FR,PR,2003-01-01,0.16160408998827255
248,IE,PR,2003-01-01,0.010355433981257432
249,IT,PR,2003-01-01,0.1492388190172551
250,LU,PR,2003-01-01,0.0011710689655966896
251,NL,PR,2003-01-01,0.042298948343497476
252,PT,PR,2003-01-01,0.027283822327725762
253,SE,PR,2003-01-01,0.023355519417308266
254,UK,PR,2003-01-01,0.15543215686625267
255,AT,PR,2002-01-01,0.021180841445545384
256,BE,PR,2002-01-01,0.027080654713277797
257,DE,PR,2002-01-01,0.21654675973267262
258,DK,PR,2002-01-01,0.014101107551621767
259,EL,PR,2002-01-01,0.028600334986390044
260,ES,PR,2002-01-01,0.10778776296956172
261,FI,PR,2002-01-01,0.01364549687316214
262,FR,PR,2002-01-01,0.16134311148085378
263,IE,PR,2002-01-01,0.010243385089968826
264,IT,PR,2002-01-01,0.14968963770008428
265,LU,PR,2002-01-01,0.0011663904445007997
266,NL,PR,2002-01-01,0.042303908411129514
267,PT,PR,2002-01-01,0.027303777942458467
268,SE,PR,2002-01-01,0.023401692980597952
269,UK,PR,2002-01-01,0.1556051376781749
270,AT,PR,2001-01-01,0.021164117522009068
271,BE,PR,2001-01-01,0.027081107399679935
272,DE,PR,2001-01-01,0.21705052893591428
273,DK,PR,2001-01-01,0.014114463732599768
274,EL,PR,2001-01-01,0.02859190732155503
275,ES,PR,2001-01-01,0.10730035752348267
276,FI,PR,2001-01-01,0.01367092195297712
277,FR,PR,2001-01-01,0.16090039617167481
278,IE,PR,2001-01-01,0.010113204832492138
279,IT,PR,2001-01-01,0.15029683277046896
280,LU,PR,2001-01-01,0.0011583481040966966
281,NL,PR,2001-01-01,0.04218359457016331
282,PT,PR,2001-01-01,0.027258843910595548
283,SE,PR,2001-01-01,0.023438189686299096
284,UK,PR,2001-01-01,0.15567718556599155
285,AT,PR,2000-01-01,0.021192721975069592
286,BE,PR,2000-01-01,0.027116850531105553
287,DE,PR,2000-01-01,0.21759900134545498
288,DK,PR,2000-01-01,0.014115846842545327
289,EL,PR,2000-01-01,0.028537810433055817
290,ES,PR,2000-01-01,0.10717987752427471
291,FI,PR,2000-01-01,0.013695503395587321
292,FR,PR,2000-01-01,0.16034541289348583
293,IE,PR,2000-01-01,0.010004376902480617
294,IT,PR,2000-01-01,0.15075435861815775
295,LU,PR,2000-01-01,0.0011483317493982488
296,NL,PR,2000-01-01,0.04201355501814195
297,PT,PR,2000-01-01,0.02714316734981812
298,SE,PR,2000-01-01,0.023468304475883592
299,UK,PR,2000-01-01,0.1556848809455406
300,AT,PR,1999-01-01,0.021209324133666215
301,BE,PR,1999-01-01,0.02713784342809587
302,DE,PR,1999-01-01,0.2179715700779673
303,DK,PR,1999-01-01,0.01411812433561451
304,EL,PR,1999-01-01,0.028556718939866475
305,ES,PR,1999-01-01,0.10708620279576153
306,FI,PR,1999-01-01,0.013709131109938948
307,FR,PR,1999-01-01,0.15984065888989066
308,IE,PR,1999-01-01,0.009915904997567433
309,IT,PR,1999-01-01,0.15120696974769327
310,LU,PR,1999-01-01,0.0011354649485318196
311,NL,PR,1999-01-01,0.04187477025500151
312,PT,PR,1999-01-01,0.02706579115601377
313,SE,PR,1999-01-01,0.023525850647043777
314,UK,PR,1999-01-01,0.15564567453734693
315,AT,PR,1998-01-01,0.0213217748579863
316,BE,PR,1998-01-01,0.027263078131237694
317,DE,PR,1998-01-01,0.21949360170827434
318,DK,PR,1998-01-01,0.01416311252082611
319,EL,PR,1998-01-01,0.02860315531729334
320,ES,PR,1998-01-01,0.10737888917951455
321,FI,PR,1998-01-01,0.01376853836946808
322,FR,PR,1998-01-01,0.1559426988916356
323,IE,PR,1998-01-01,0.009879362532879786
324,IT,PR,1998-01-01,0.15221235740033437
325,LU,PR,1998-01-01,0.0011289328970765346
326,NL,PR,1998-01-01,0.04187307742199339
327,PT,PR,1998-01-01,0.027106581630642126
328,SE,PR,1998-01-01,0.023666330822169825
329,UK,PR,1998-01-01,0.15619850831866797
330,AT,PR,1997-01-01,0.021356390389640146
331,BE,PR,1997-01-01,0.027269333831038113
332,DE,PR,1997-01-01,0.21989845887231793
333,DK,PR,1997-01-01,0.014144133625754198
334,EL,PR,1997-01-01,0.028500156260267667
335,ES,PR,1997-01-01,0.10717475837520768
336,FI,PR,1997-01-01,0.013761242612279564
337,FR,PR,1997-01-01,0.15582594681500883
338,IE,PR,1997-01-01,0.00979999736804491
339,IT,PR,1997-01-01,0.15250207389802728
340,LU,PR,1997-01-01,0.0011176960873306293
341,NL,PR,1997-01-01,0.04173994142966835
342,PT,PR,1997-01-01,0.02703866237993327
343,SE,PR,1997-01-01,0.02371467416744552
344,UK,PR,1997-01-01,0.1561565338880359
345,AT,PR,1996-01-01,0.021381531112172385
346,BE,PR,1996-01-01,0.02726921261982664
347,DE,PR,1996-01-01,0.21996336764026167
348,DK,PR,1996-01-01,0.014117194935156114
349,EL,PR,1996-01-01,0.028466345132514344
350,ES,PR,1996-01-01,0.1070233643456033
351,FI,PR,1996-01-01,0.013756400432005988
352,FR,PR,1996-01-01,0.15575871671545627
353,IE,PR,1996-01-01,0.009732412970441005
354,IT,PR,1996-01-01,0.15282355432211953
355,LU,PR,1996-01-01,0.0011065716164305108
356,NL,PR,1996-01-01,0.04165475654889434
357,PT,PR,1996-01-01,0.027002103007633154
358,SE,PR,1996-01-01,0.023759286282600035
359,UK,PR,1996-01-01,0.1561851823188847
360,AT,PR,1995-01-01,0.021417043678111744
361,BE,PR,1995-01-01,0.02731380956684691
362,DE,PR,1995-01-01,0.21984241709193697
363,DK,PR,1995-01-01,0.014062493221645253
364,EL,PR,1995-01-01,0.028406836584327872
365,ES,PR,1995-01-01,0.10687567429505872
366,FI,PR,1995-01-01,0.013747137702582199
367,FR,PR,1995-01-01,0.15571099357180165
368,IE,PR,1995-01-01,0.009699808286524642
369,IT,PR,1995-01-01,0.1532625234317571
370,LU,PR,1995-01-01,0.001093703757634212
371,NL,PR,1995-01-01,0.0415861461595181
372,PT,PR,1995-01-01,0.026985105280856587
373,SE,PR,1995-01-01,0.02377051405998982
374,UK,PR,1995-01-01,0.15622579331140823
375,AT,PR,1994-01-01,0.02143888148801517
376,BE,PR,1994-01-01,0.027311535892708905
377,DE,PR,1994-01-01,0.21993361072332956
378,DK,PR,1994-01-01,0.014051426540040775
379,EL,PR,1994-01-01,0.02836401887430461
380,ES,PR,1994-01-01,0.10669352623569354
381,FI,PR,1994-01-01,0.01373038732412037
382,FR,PR,1994-01-01,0.15565253122860098
383,IE,PR,1994-01-01,0.00968864609350678
384,IT,PR,1994-01-01,0.15369861836705345
385,LU,PR,1994-01-01,0.0010821182027402152
386,NL,PR,1994-01-01,0.04148269305248316
387,PT,PR,1994-01-01,0.02697019006084003
388,SE,PR,1994-01-01,0.02364628094414613
389,UK,PR,1994-01-01,0.15625553497241632
390,AT,PR,1993-01-01,0.021388158033993205
391,BE,PR,1993-01-01,0.027319033155347477
392,DE,PR,1993-01-01,0.2197138029049398
393,DK,PR,1993-01-01,0.014056901219663114
394,EL,PR,1993-01-01,0.028303005441527727
395,ES,PR,1993-01-01,0.10653768982276889
396,FI,PR,1993-01-01,0.013716015638527613
397,FR,PR,1993-01-01,0.15566352351901716
398,IE,PR,1993-01-01,0.009684998599726841
399,IT,PR,1993-01-01,0.15417684051114072
400,LU,PR,1993-01-01,0.001071101177671607
401,NL,PR,1993-01-01,0.041349476344400136
402,PT,PR,1993-01-01,0.027011443286817947
403,SE,PR,1993-01-01,0.023584611426565972
404,UK,PR,1993-01-01,0.15642339891789178
405,AT,PR,1992-01-01,0.021264281198766298
406,BE,PR,1992-01-01,0.0273257241030038
407,DE,PR,1992-01-01,0.21887460037684317
408,DK,PR,1992-01-01,0.014074922479116946
409,EL,PR,1992-01-01,0.02826684500792299
410,ES,PR,1992-01-01,0.10647638722998021
411,FI,PR,1992-01-01,0.013711949940261838
412,FR,PR,1992-01-01,0.15571613802453682
413,IE,PR,1992-01-01,0.009672502161955662
414,IT,PR,1992-01-01,0.15479561911853285
415,LU,PR,1992-01-01,0.0010622735279735447
416,NL,PR,1992-01-01,0.04125075858763078
417,PT,PR,1992-01-01,0.027129497970403184
418,SE,PR,1992-01-01,0.023568839447193728
419,UK,PR,1992-01-01,0.1568096608258782
420,AT,PR,1991-01-01,0.02111702530146446
421,BE,PR,1991-01-01,0.027350334729554025
422,DE,PR,1991-01-01,0.21841222734733048
423,DK,PR,1991-01-01,0.0140941225771841
424,EL,PR,1991-01-01,0.028132796710042537
425,ES,PR,1991-01-01,0.10648066530246021
426,FI,PR,1991-01-01,0.013688834350572797
427,FR,PR,1991-01-01,0.1556638626410006
428,IE,PR,1991-01-01,0.009642549373064512
429,IT,PR,1991-01-01,0.1553994726715193
430,LU,PR,1991-01-01,0.0010527180322410508
431,NL,PR,1991-01-01,0.04110761218382549
432,PT,PR,1991-01-01,0.02730505470888526
433,SE,PR,1991-01-01,0.02352630361423241
434,UK,PR,1991-01-01,0.15702642045662274
435,AT,PR,1990-01-01,0.021030005010569557
436,BE,PR,1990-01-01,0.027365191075059424
437,DE,PR,1990-01-01,0.21763019503281078
438,DK,PR,1990-01-01,0.01412691276644179
439,EL,PR,1990-01-01,0.027841396547495744
440,ES,PR,1990-01-01,0.10688070775351308
441,FI,PR,1990-01-01,0.01368394897229627
442,FR,PR,1990-01-01,0.15563674550303144
443,IE,PR,1990-01-01,0.00964726651071577
444,IT,PR,1990-01-01,0.15595958921076136
445,LU,PR,1990-01-01,0.001043410176737894
446,NL,PR,1990-01-01,0.04096773864862158
447,PT,PR,1990-01-01,0.027497819429530987
448,SE,PR,1990-01-01,0.023456892354444803
449,UK,PR,1990-01-01,0.15723218100796954
