,geo,unit,Year,value
0,AT,PR,2019-01-01,0.02549143868983227
1,BE,PR,2019-01-01,0.030161047618492507
2,DE,PR,2019-01-01,0.22040473480688014
3,DK,PR,2019-01-01,0.020499172606560607
4,EL,PR,2019-01-01,0.012683015404507206
5,ES,PR,2019-01-01,0.08109501055166636
6,FI,PR,2019-01-01,0.015665735648552753
7,FR,PR,2019-01-01,0.15976863357990218
8,IE,PR,2019-01-01,0.022883643053301508
9,IT,PR,2019-01-01,0.11722021322577125
10,LU,PR,2019-01-01,0.003976366351303378
11,NL,PR,2019-01-01,0.051366187903826015
12,PT,PR,2019-01-01,0.013533978506630389
13,SE,PR,2019-01-01,0.03346022229534754
14,UK,PR,2019-01-01,0.191790599757426
15,AT,PR,2018-01-01,0.025412747496375523
16,BE,PR,2018-01-01,0.030129765286307408
17,DE,PR,2018-01-01,0.22201585505742732
18,DK,PR,2018-01-01,0.0202896637413621
19,EL,PR,2018-01-01,0.012611855365199357
20,ES,PR,2018-01-01,0.08055440973900223
21,FI,PR,2018-01-01,0.015689286830794142
22,FR,PR,2018-01-01,0.15943918762059553
23,IE,PR,2018-01-01,0.021962113443996064
24,IT,PR,2018-01-01,0.11838658615281371
25,LU,PR,2018-01-01,0.003937583887734622
26,NL,PR,2018-01-01,0.05117515582615199
27,PT,PR,2018-01-01,0.01341926792133028
28,SE,PR,2018-01-01,0.0334947478672012
29,UK,PR,2018-01-01,0.19148177376370867
30,AT,PR,2017-01-01,0.025251785350057347
31,BE,PR,2017-01-01,0.03021390544935023
32,DE,PR,2017-01-01,0.22254854824857212
33,DK,PR,2017-01-01,0.020166744624142013
34,EL,PR,2017-01-01,0.0125916479462383
35,ES,PR,2017-01-01,0.08009795787407545
36,FI,PR,2017-01-01,0.015728651612401556
37,FR,PR,2017-01-01,0.15940501957327446
38,IE,PR,2017-01-01,0.020662942610840836
39,IT,PR,2017-01-01,0.11952928362537531
40,LU,PR,2017-01-01,0.0038864191253304486
41,NL,PR,2017-01-01,0.050880255705193556
42,PT,PR,2017-01-01,0.013306019352478736
43,SE,PR,2017-01-01,0.03343594598504044
44,UK,PR,2017-01-01,0.19229487291762914
45,AT,PR,2016-01-01,0.02522995224257396
46,BE,PR,2016-01-01,0.030357403276879313
47,DE,PR,2016-01-01,0.22238090935456267
48,DK,PR,2016-01-01,0.02023625393355846
49,EL,PR,2016-01-01,0.012701153337452477
50,ES,PR,2016-01-01,0.07970566905516734
51,FI,PR,2016-01-01,0.01559429995003818
52,FR,PR,2016-01-01,0.1595552778957494
53,IE,PR,2016-01-01,0.019562881362359275
54,IT,PR,2016-01-01,0.12037575850703156
55,LU,PR,2016-01-01,0.003908815890446906
56,NL,PR,2016-01-01,0.05062164829389573
57,PT,PR,2016-01-01,0.013162227288487883
58,SE,PR,2016-01-01,0.03337724561679663
59,UK,PR,2016-01-01,0.1932305039950003
60,AT,PR,2015-01-01,0.02519326510823906
61,BE,PR,2015-01-01,0.030493778825333096
62,DE,PR,2015-01-01,0.22173739854312238
63,DK,PR,2015-01-01,0.01997914648192509
64,EL,PR,2015-01-01,0.012971586955389216
65,ES,PR,2015-01-01,0.07885692518525421
66,FI,PR,2015-01-01,0.015468936358248466
67,FR,PR,2015-01-01,0.1608789871369155
68,IE,PR,2015-01-01,0.01923387722601917
69,IT,PR,2015-01-01,0.12113717219910772
70,LU,PR,2015-01-01,0.0038101215632201572
71,NL,PR,2015-01-01,0.05049407402929398
72,PT,PR,2015-01-01,0.013151226688446096
73,SE,PR,2015-01-01,0.03333263252274039
74,UK,PR,2015-01-01,0.1932608711767456
75,AT,PR,2014-01-01,0.02549764029235812
76,BE,PR,2014-01-01,0.030554184456046865
77,DE,PR,2014-01-01,0.22281657316057296
78,DK,PR,2014-01-01,0.01995812395761025
79,EL,PR,2014-01-01,0.013319807778332802
80,ES,PR,2014-01-01,0.0776416144790981
81,FI,PR,2014-01-01,0.015729154808576156
82,FR,PR,2014-01-01,0.16266417582425477
83,IE,PR,2014-01-01,0.0157105634174571
84,IT,PR,2014-01-01,0.12288803293176527
85,LU,PR,2014-01-01,0.003734453108157396
86,NL,PR,2014-01-01,0.05063062746820356
87,PT,PR,2014-01-01,0.013208438986301292
88,SE,PR,2014-01-01,0.03261347466920341
89,UK,PR,2014-01-01,0.1930331346620619
90,AT,PR,2013-01-01,0.025752556661906626
91,BE,PR,2013-01-01,0.03058099369940392
92,DE,PR,2013-01-01,0.22160024471914372
93,DK,PR,2013-01-01,0.019967600741906635
94,EL,PR,2013-01-01,0.013442492176385963
95,ES,PR,2013-01-01,0.07785891042615015
96,FI,PR,2013-01-01,0.01605003772337659
97,FR,PR,2013-01-01,0.16381051596349808
98,IE,PR,2013-01-01,0.014713565855007283
99,IT,PR,2013-01-01,0.12494305896450024
100,LU,PR,2013-01-01,0.0036403166802753163
101,NL,PR,2013-01-01,0.05075256255671903
102,PT,PR,2013-01-01,0.013323165960897894
103,SE,PR,2013-01-01,0.03229891697692205
104,UK,PR,2013-01-01,0.19126506089390657
105,AT,PR,2012-01-01,0.025814679526037
106,BE,PR,2012-01-01,0.030522412409300967
107,DE,PR,2012-01-01,0.2212439826804276
108,DK,PR,2012-01-01,0.019835738418090984
109,EL,PR,2012-01-01,0.013929874451838497
110,ES,PR,2012-01-01,0.07920351071069365
111,FI,PR,2012-01-01,0.016239339399112335
112,FR,PR,2012-01-01,0.16330636253966568
113,IE,PR,2012-01-01,0.014556071274023087
114,IT,PR,2012-01-01,0.1276260705959508
115,LU,PR,2012-01-01,0.0035213466132798304
116,NL,PR,2012-01-01,0.050954291605388044
117,PT,PR,2012-01-01,0.013483113967554708
118,SE,PR,2012-01-01,0.03200493575003859
119,UK,PR,2012-01-01,0.18775827005859816
120,AT,PR,2011-01-01,0.025529919916182593
121,BE,PR,2011-01-01,0.03016811238897093
122,DE,PR,2011-01-01,0.21937195064160409
123,DK,PR,2011-01-01,0.01970578173421568
124,EL,PR,2011-01-01,0.014962279864309438
125,ES,PR,2011-01-01,0.08126790266395491
126,FI,PR,2011-01-01,0.0163986353426948
127,FR,PR,2011-01-01,0.16209634286540567
128,IE,PR,2011-01-01,0.014460822455304693
129,IT,PR,2011-01-01,0.13098153939481555
130,LU,PR,2011-01-01,0.003518600492483178
131,NL,PR,2011-01-01,0.051263312957240736
132,PT,PR,2011-01-01,0.013992845658637192
133,SE,PR,2011-01-01,0.032055860028654216
134,UK,PR,2011-01-01,0.1842260935955264
135,AT,PR,2010-01-01,0.02523057932480885
136,BE,PR,2010-01-01,0.03017449115102416
137,DE,PR,2010-01-01,0.21471083471255745
138,DK,PR,2010-01-01,0.01977952475554527
139,EL,PR,2010-01-01,0.016748601885516218
140,ES,PR,2010-01-01,0.08334116804942324
141,FI,PR,2010-01-01,0.0162656584512189
142,FR,PR,2010-01-01,0.16134020545298092
143,IE,PR,2010-01-01,0.01465862507081754
144,IT,PR,2010-01-01,0.13229342680656836
145,LU,PR,2010-01-01,0.0034903544320512604
146,NL,PR,2010-01-01,0.05134650731446314
147,PT,PR,2010-01-01,0.014478547610166485
148,SE,PR,2010-01-01,0.031596333779235014
149,UK,PR,2010-01-01,0.18454514120362311
150,AT,PR,2009-01-01,0.025330312026609587
151,BE,PR,2009-01-01,0.029991261657210985
152,DE,PR,2009-01-01,0.2107139534199437
153,DK,PR,2009-01-01,0.019851107180266902
154,EL,PR,2009-01-01,0.018116310727174567
155,ES,PR,2009-01-01,0.0850690550512121
156,FI,PR,2009-01-01,0.016116498959989213
157,FR,PR,2009-01-01,0.16179949749514366
158,IE,PR,2009-01-01,0.014720491564672875
159,IT,PR,2009-01-01,0.13297804165820565
160,LU,PR,2009-01-01,0.003402973841561511
161,NL,PR,2009-01-01,0.05180094248760988
162,PT,PR,2009-01-01,0.014549987507740829
163,SE,PR,2009-01-01,0.03048923047857269
164,UK,PR,2009-01-01,0.18507033594408567
165,AT,PR,2008-01-01,0.02516132417135491
166,BE,PR,2008-01-01,0.029260948419520972
167,DE,PR,2008-01-01,0.21359760394511113
168,DK,PR,2008-01-01,0.01995546840646119
169,EL,PR,2008-01-01,0.01809626871446069
170,ES,PR,2008-01-01,0.08450034064895041
171,FI,PR,2008-01-01,0.016759581105589852
172,FR,PR,2008-01-01,0.15924525025902533
173,IE,PR,2008-01-01,0.01482480075339092
174,IT,PR,2008-01-01,0.13420553304483546
175,LU,PR,2008-01-01,0.003401265591058956
176,NL,PR,2008-01-01,0.05140317548988339
177,PT,PR,2008-01-01,0.014357064266585642
178,SE,PR,2008-01-01,0.030467936535496377
179,UK,PR,2008-01-01,0.1847634386482748
180,AT,PR,2007-01-01,0.02485081024709516
181,BE,PR,2007-01-01,0.029191438327123065
182,DE,PR,2007-01-01,0.21200249878226723
183,DK,PR,2007-01-01,0.020099954316583575
184,EL,PR,2007-01-01,0.018194942991801567
185,ES,PR,2007-01-01,0.08393176036835402
186,FI,PR,2007-01-01,0.016663841239272545
187,FR,PR,2007-01-01,0.15917115955010722
188,IE,PR,2007-01-01,0.015552491334788638
189,IT,PR,2007-01-01,0.13579141734255654
190,LU,PR,2007-01-01,0.00345252854570524
191,NL,PR,2007-01-01,0.050416056476473424
192,PT,PR,2007-01-01,0.01434118862666754
193,SE,PR,2007-01-01,0.030669586955799792
194,UK,PR,2007-01-01,0.1856703248954043
195,AT,PR,2006-01-01,0.024622796350033768
196,BE,PR,2006-01-01,0.028937688073533724
197,DE,PR,2006-01-01,0.2115735265080264
198,DK,PR,2006-01-01,0.020471733226272524
199,EL,PR,2006-01-01,0.01810719641459181
200,ES,PR,2006-01-01,0.08326017918317712
201,FI,PR,2006-01-01,0.0162645211775249
202,FR,PR,2006-01-01,0.15971655786315817
203,IE,PR,2006-01-01,0.015176163442538953
204,IT,PR,2006-01-01,0.13751561345565524
205,LU,PR,2006-01-01,0.003274768263038448
206,NL,PR,2006-01-01,0.04993161718676766
207,PT,PR,2006-01-01,0.014378844042908878
208,SE,PR,2006-01-01,0.030472850373742928
209,UK,PR,2006-01-01,0.18629594443902936
210,AT,PR,2005-01-01,0.024547187018215604
211,BE,PR,2005-01-01,0.0291024756559308
212,DE,PR,2005-01-01,0.21019127218327108
213,DK,PR,2005-01-01,0.02031871833335327
214,EL,PR,2005-01-01,0.017675981535145758
215,ES,PR,2005-01-01,0.0824872776925905
216,FI,PR,2005-01-01,0.01612520249638548
217,FR,PR,2005-01-01,0.16078761475703945
218,IE,PR,2005-01-01,0.01489674500541525
219,IT,PR,2005-01-01,0.13933361445291198
220,LU,PR,2005-01-01,0.003211179638329515
221,NL,PR,2005-01-01,0.04977493220558773
222,PT,PR,2005-01-01,0.014592673671391653
223,SE,PR,2005-01-01,0.030028425429610504
224,UK,PR,2005-01-01,0.1869266999248213
225,AT,PR,2004-01-01,0.02447313356607614
226,BE,PR,2004-01-01,0.028992656795450086
227,DE,PR,2004-01-01,0.2127242220733727
228,DK,PR,2004-01-01,0.0202391032957795
229,EL,PR,2004-01-01,0.01791080882162781
230,ES,PR,2004-01-01,0.08112134323717955
231,FI,PR,2004-01-01,0.015992787869805663
232,FR,PR,2004-01-01,0.16121843307588288
233,IE,PR,2004-01-01,0.014366234892895843
234,IT,PR,2004-01-01,0.14087841658516614
235,LU,PR,2004-01-01,0.0031726843658569383
236,NL,PR,2004-01-01,0.0497187197949054
237,PT,PR,2004-01-01,0.014759735867354714
238,SE,PR,2004-01-01,0.02975891375094885
239,UK,PR,2004-01-01,0.18467280600769773
240,AT,PR,2003-01-01,0.024377078397453913
241,BE,PR,2003-01-01,0.028645746640211633
242,DE,PR,2003-01-01,0.2151249704194356
243,DK,PR,2003-01-01,0.020172807373806962
244,EL,PR,2003-01-01,0.017445557123854746
245,ES,PR,2003-01-01,0.08049920048414264
246,FI,PR,2003-01-01,0.01573742904219395
247,FR,PR,2003-01-01,0.16043792183356975
248,IE,PR,2003-01-01,0.01377530875953073
249,IT,PR,2003-01-01,0.1421400864600627
250,LU,PR,2003-01-01,0.0031334821944323924
251,NL,PR,2003-01-01,0.04988787071561094
252,PT,PR,2003-01-01,0.014838494384150965
253,SE,PR,2003-01-01,0.029187063022753774
254,UK,PR,2003-01-01,0.18459698314878933
255,AT,PR,2002-01-01,0.02442031775755872
256,BE,PR,2002-01-01,0.028669152074884494
257,DE,PR,2002-01-01,0.21909880375192178
258,DK,PR,2002-01-01,0.020319584505042395
259,EL,PR,2002-01-01,0.01667480968780575
260,ES,PR,2002-01-01,0.07904418566934004
261,FI,PR,2002-01-01,0.01560116577782768
262,FR,PR,2002-01-01,0.16091107952016437
263,IE,PR,2002-01-01,0.013521288893709994
264,IT,PR,2002-01-01,0.14353380051564713
265,LU,PR,2002-01-01,0.003117793843909851
266,NL,PR,2002-01-01,0.05036847857873727
267,PT,PR,2002-01-01,0.015145697911466268
268,SE,PR,2002-01-01,0.028847778367729192
269,UK,PR,2002-01-01,0.1807260631442549
270,AT,PR,2001-01-01,0.024303541145482294
271,BE,PR,2001-01-01,0.028516532463869437
272,DE,PR,2001-01-01,0.22209307179993473
273,DK,PR,2001-01-01,0.02046098474954199
274,EL,PR,2001-01-01,0.016232368970090717
275,ES,PR,2001-01-01,0.07783959327594045
276,FI,PR,2001-01-01,0.015518084667653894
277,FR,PR,2001-01-01,0.16095868852278347
278,IE,PR,2001-01-01,0.01291437005557149
279,IT,PR,2001-01-01,0.14483881396102244
280,LU,PR,2001-01-01,0.003038093454316861
281,NL,PR,2001-01-01,0.050845025360271544
282,PT,PR,2001-01-01,0.015204996480175146
283,SE,PR,2001-01-01,0.02855662041572344
284,UK,PR,2001-01-01,0.17867921467762216
285,AT,PR,2000-01-01,0.02454215545615664
286,BE,PR,2000-01-01,0.0288442336063865
287,DE,PR,2000-01-01,0.2233240717248988
288,DK,PR,2000-01-01,0.020752863020028118
289,EL,PR,2000-01-01,0.015940834208021355
290,ES,PR,2000-01-01,0.07658771352198769
291,FI,PR,2000-01-01,0.015465402933342894
292,FR,PR,2000-01-01,0.1613969650327359
293,IE,PR,2000-01-01,0.012544275270280458
294,IT,PR,2000-01-01,0.14527928131073573
295,LU,PR,2000-01-01,0.00303007592383877
296,NL,PR,2000-01-01,0.05081245905744748
297,PT,PR,2000-01-01,0.015252389001904516
298,SE,PR,2000-01-01,0.028785161266132623
299,UK,PR,2000-01-01,0.17744211866610266
300,AT,PR,1999-01-01,0.02464399225159139
301,BE,PR,1999-01-01,0.028868703367772874
302,DE,PR,1999-01-01,0.22529800095581207
303,DK,PR,1999-01-01,0.02076441984828266
304,EL,PR,1999-01-01,0.015923176798481927
305,ES,PR,1999-01-01,0.07553885460507173
306,FI,PR,1999-01-01,0.0151775561921076
307,FR,PR,1999-01-01,0.16121215099359992
308,IE,PR,1999-01-01,0.011897712032255092
309,IT,PR,1999-01-01,0.14530407026703743
310,LU,PR,1999-01-01,0.0029059211798842756
311,NL,PR,1999-01-01,0.05062178876371755
312,PT,PR,1999-01-01,0.01525069311815769
313,SE,PR,1999-01-01,0.028520939646004377
314,UK,PR,1999-01-01,0.1780720199802234
315,AT,PR,1998-01-01,0.02453493073276652
316,BE,PR,1998-01-01,0.028744720567191944
317,DE,PR,1998-01-01,0.22796483595136868
318,DK,PR,1998-01-01,0.020794684979382146
319,EL,PR,1998-01-01,0.015927115775967553
320,ES,PR,1998-01-01,0.07453222159049482
321,FI,PR,1998-01-01,0.014991202170505228
322,FR,PR,1998-01-01,0.1607081549939531
323,IE,PR,1998-01-01,0.011100375678341413
324,IT,PR,1998-01-01,0.14740918815574613
325,LU,PR,1998-01-01,0.002761723792110704
326,NL,PR,1998-01-01,0.04968872208138993
327,PT,PR,1998-01-01,0.01513202512758019
328,SE,PR,1998-01-01,0.028206544257636305
329,UK,PR,1998-01-01,0.17750355414556546
330,AT,PR,1997-01-01,0.02442986963229106
331,BE,PR,1997-01-01,0.029076265076407593
332,DE,PR,1997-01-01,0.23046490157462388
333,DK,PR,1997-01-01,0.020981781907628037
334,EL,PR,1997-01-01,0.0158110652644628
335,ES,PR,1997-01-01,0.07363609145613548
336,FI,PR,1997-01-01,0.014661522400941587
337,FR,PR,1997-01-01,0.1600088118645194
338,IE,PR,1997-01-01,0.010533218539697029
339,IT,PR,1997-01-01,0.14933090203808796
340,LU,PR,1997-01-01,0.002686026987334726
341,NL,PR,1997-01-01,0.0489642422832368
342,PT,PR,1997-01-01,0.014890897834400944
343,SE,PR,1997-01-01,0.02788910305783462
344,UK,PR,1997-01-01,0.17663530008239797
345,AT,PR,1996-01-01,0.024618456903918295
346,BE,PR,1996-01-01,0.02882080345669668
347,DE,PR,1996-01-01,0.2329512623529522
348,DK,PR,1996-01-01,0.020904744900322177
349,EL,PR,1996-01-01,0.01556856746052814
350,ES,PR,1996-01-01,0.07305322505609063
351,FI,PR,1996-01-01,0.014185485754362761
352,FR,PR,1996-01-01,0.16086161369753882
353,IE,PR,1996-01-01,0.00977130978990225
354,IT,PR,1996-01-01,0.1508729099743979
355,LU,PR,1996-01-01,0.0026141625440269166
356,NL,PR,1996-01-01,0.04828497321919983
357,PT,PR,1996-01-01,0.01467421967000141
358,SE,PR,1996-01-01,0.02783800958335814
359,UK,PR,1996-01-01,0.17498025563670383
360,AT,PR,1995-01-01,0.024491956472625746
361,BE,PR,1995-01-01,0.028963643442639252
362,DE,PR,1995-01-01,0.2352680117969732
363,DK,PR,1995-01-01,0.02068605468156011
364,EL,PR,1995-01-01,0.015411384425726217
365,ES,PR,1995-01-01,0.07245769960278214
366,FI,PR,1995-01-01,0.013933206356283067
367,FR,PR,1995-01-01,0.16151299077374098
368,IE,PR,1995-01-01,0.009262744016976222
369,IT,PR,1995-01-01,0.15170254705755945
370,LU,PR,1995-01-01,0.0026253910006925367
371,NL,PR,1995-01-01,0.04750349882996626
372,PT,PR,1995-01-01,0.014435952427993178
373,SE,PR,1995-01-01,0.02790493138460623
374,UK,PR,1995-01-01,0.1738399877298755
375,AT,PR,1994-01-01,
376,BE,PR,1994-01-01,
377,DE,PR,1994-01-01,0.3738878676746691
378,DK,PR,1994-01-01,0.03239795581850262
379,EL,PR,1994-01-01,
380,ES,PR,1994-01-01,
381,FI,PR,1994-01-01,0.02157265698273472
382,FR,PR,1994-01-01,0.25523876037799703
383,IE,PR,1994-01-01,
384,IT,PR,1994-01-01,
385,LU,PR,1994-01-01,
386,NL,PR,1994-01-01,
387,PT,PR,1994-01-01,
388,SE,PR,1994-01-01,0.043322321285951496
389,UK,PR,1994-01-01,0.27358043786014513
390,AT,PR,1993-01-01,
391,BE,PR,1993-01-01,
392,DE,PR,1993-01-01,0.3759864919576946
393,DK,PR,1993-01-01,0.03167217518022975
394,EL,PR,1993-01-01,
395,ES,PR,1993-01-01,
396,FI,PR,1993-01-01,0.021367027585974897
397,FR,PR,1993-01-01,0.2567709712657716
398,IE,PR,1993-01-01,
399,IT,PR,1993-01-01,
400,LU,PR,1993-01-01,
401,NL,PR,1993-01-01,
402,PT,PR,1993-01-01,
403,SE,PR,1993-01-01,0.04292333493697457
404,UK,PR,1993-01-01,0.2712799990733546
405,AT,PR,1992-01-01,
406,BE,PR,1992-01-01,
407,DE,PR,1992-01-01,0.3971942498395565
408,DK,PR,1992-01-01,0.033127438198310356
409,EL,PR,1992-01-01,
410,ES,PR,1992-01-01,
411,FI,PR,1992-01-01,0.022500000087928754
412,FR,PR,1992-01-01,0.2702970771322608
413,IE,PR,1992-01-01,
414,IT,PR,1992-01-01,
415,LU,PR,1992-01-01,
416,NL,PR,1992-01-01,
417,PT,PR,1992-01-01,
418,SE,PR,1992-01-01,
419,UK,PR,1992-01-01,0.27688123474194376
420,AT,PR,1991-01-01,
421,BE,PR,1991-01-01,
422,DE,PR,1991-01-01,0.39471100939713477
423,DK,PR,1991-01-01,0.032910999532433094
424,EL,PR,1991-01-01,
425,ES,PR,1991-01-01,
426,FI,PR,1991-01-01,0.023566804292139167
427,FR,PR,1991-01-01,0.2694762707345101
428,IE,PR,1991-01-01,
429,IT,PR,1991-01-01,
430,LU,PR,1991-01-01,
431,NL,PR,1991-01-01,
432,PT,PR,1991-01-01,
433,SE,PR,1991-01-01,
434,UK,PR,1991-01-01,0.27933491604378297
435,AT,PR,1990-01-01,
436,BE,PR,1990-01-01,
437,DE,PR,1990-01-01,
438,DK,PR,1990-01-01,0.053506396508128086
439,EL,PR,1990-01-01,
440,ES,PR,1990-01-01,
441,FI,PR,1990-01-01,0.04127842013638536
442,FR,PR,1990-01-01,0.43960980975953057
443,IE,PR,1990-01-01,
444,IT,PR,1990-01-01,
445,LU,PR,1990-01-01,
446,NL,PR,1990-01-01,
447,PT,PR,1990-01-01,
448,SE,PR,1990-01-01,
449,UK,PR,1990-01-01,0.46560537359595605
450,AT,PR,1989-01-01,
451,BE,PR,1989-01-01,
452,DE,PR,1989-01-01,
453,DK,PR,1989-01-01,0.05363674446841446
454,EL,PR,1989-01-01,
455,ES,PR,1989-01-01,
456,FI,PR,1989-01-01,0.04170962228181125
457,FR,PR,1989-01-01,0.43447820408565585
458,IE,PR,1989-01-01,
459,IT,PR,1989-01-01,
460,LU,PR,1989-01-01,
461,NL,PR,1989-01-01,
462,PT,PR,1989-01-01,
463,SE,PR,1989-01-01,
464,UK,PR,1989-01-01,0.4701754291641185
465,AT,PR,1988-01-01,
466,BE,PR,1988-01-01,
467,DE,PR,1988-01-01,
468,DK,PR,1988-01-01,0.05506974326089638
469,EL,PR,1988-01-01,
470,ES,PR,1988-01-01,
471,FI,PR,1988-01-01,0.041013958528991964
472,FR,PR,1988-01-01,0.4302735296851926
473,IE,PR,1988-01-01,
474,IT,PR,1988-01-01,
475,LU,PR,1988-01-01,
476,NL,PR,1988-01-01,
477,PT,PR,1988-01-01,
478,SE,PR,1988-01-01,
479,UK,PR,1988-01-01,0.473642768524919
480,AT,PR,1987-01-01,
481,BE,PR,1987-01-01,
482,DE,PR,1987-01-01,
483,DK,PR,1987-01-01,0.05780501655155569
484,EL,PR,1987-01-01,
485,ES,PR,1987-01-01,
486,FI,PR,1987-01-01,0.04091076801874688
487,FR,PR,1987-01-01,0.4311343201099053
488,IE,PR,1987-01-01,
489,IT,PR,1987-01-01,
490,LU,PR,1987-01-01,
491,NL,PR,1987-01-01,
492,PT,PR,1987-01-01,
493,SE,PR,1987-01-01,
494,UK,PR,1987-01-01,0.4701498953197922
495,AT,PR,1986-01-01,
496,BE,PR,1986-01-01,
497,DE,PR,1986-01-01,
498,DK,PR,1986-01-01,0.059835516269447525
499,EL,PR,1986-01-01,
500,ES,PR,1986-01-01,
501,FI,PR,1986-01-01,0.040990297681969094
502,FR,PR,1986-01-01,0.4362372157340828
503,IE,PR,1986-01-01,
504,IT,PR,1986-01-01,
505,LU,PR,1986-01-01,
506,NL,PR,1986-01-01,
507,PT,PR,1986-01-01,
508,SE,PR,1986-01-01,
509,UK,PR,1986-01-01,0.4629369703145005
510,AT,PR,1985-01-01,
511,BE,PR,1985-01-01,
512,DE,PR,1985-01-01,
513,DK,PR,1985-01-01,0.05868122986971916
514,EL,PR,1985-01-01,
515,ES,PR,1985-01-01,
516,FI,PR,1985-01-01,0.041040283664552916
517,FR,PR,1985-01-01,0.4385527197892576
518,IE,PR,1985-01-01,
519,IT,PR,1985-01-01,
520,LU,PR,1985-01-01,
521,NL,PR,1985-01-01,
522,PT,PR,1985-01-01,
523,SE,PR,1985-01-01,
524,UK,PR,1985-01-01,0.4617257666764704
525,AT,PR,1984-01-01,
526,BE,PR,1984-01-01,
527,DE,PR,1984-01-01,
528,DK,PR,1984-01-01,0.05811063703919429
529,EL,PR,1984-01-01,
530,ES,PR,1984-01-01,
531,FI,PR,1984-01-01,0.04081996196200374
532,FR,PR,1984-01-01,0.4444637703295508
533,IE,PR,1984-01-01,
534,IT,PR,1984-01-01,
535,LU,PR,1984-01-01,
536,NL,PR,1984-01-01,
537,PT,PR,1984-01-01,
538,SE,PR,1984-01-01,
539,UK,PR,1984-01-01,0.4566056306692511
540,AT,PR,1983-01-01,
541,BE,PR,1983-01-01,
542,DE,PR,1983-01-01,
543,DK,PR,1983-01-01,0.05694608652550741
544,EL,PR,1983-01-01,
545,ES,PR,1983-01-01,
546,FI,PR,1983-01-01,0.04036165763786705
547,FR,PR,1983-01-01,0.44693710693378935
548,IE,PR,1983-01-01,
549,IT,PR,1983-01-01,
550,LU,PR,1983-01-01,
551,NL,PR,1983-01-01,
552,PT,PR,1983-01-01,
553,SE,PR,1983-01-01,
554,UK,PR,1983-01-01,0.45575514890283614
555,AT,PR,1982-01-01,
556,BE,PR,1982-01-01,
557,DE,PR,1982-01-01,
558,DK,PR,1982-01-01,0.05702196524727005
559,EL,PR,1982-01-01,
560,ES,PR,1982-01-01,
561,FI,PR,1982-01-01,0.04021159032705387
562,FR,PR,1982-01-01,0.45352309190438883
563,IE,PR,1982-01-01,
564,IT,PR,1982-01-01,
565,LU,PR,1982-01-01,
566,NL,PR,1982-01-01,
567,PT,PR,1982-01-01,
568,SE,PR,1982-01-01,
569,UK,PR,1982-01-01,0.4492433525212873
570,AT,PR,1981-01-01,
571,BE,PR,1981-01-01,
572,DE,PR,1981-01-01,
573,DK,PR,1981-01-01,0.05629662145936926
574,EL,PR,1981-01-01,
575,ES,PR,1981-01-01,
576,FI,PR,1981-01-01,0.03992211721267721
577,FR,PR,1981-01-01,0.45290485054366525
578,IE,PR,1981-01-01,
579,IT,PR,1981-01-01,
580,LU,PR,1981-01-01,
581,NL,PR,1981-01-01,
582,PT,PR,1981-01-01,
583,SE,PR,1981-01-01,
584,UK,PR,1981-01-01,0.4508764107842882
585,AT,PR,1980-01-01,
586,BE,PR,1980-01-01,
587,DE,PR,1980-01-01,
588,DK,PR,1980-01-01,0.05675085395322623
589,EL,PR,1980-01-01,
590,ES,PR,1980-01-01,
591,FI,PR,1980-01-01,0.039456716891101015
592,FR,PR,1980-01-01,0.448720955922191
593,IE,PR,1980-01-01,
594,IT,PR,1980-01-01,
595,LU,PR,1980-01-01,
596,NL,PR,1980-01-01,
597,PT,PR,1980-01-01,
598,SE,PR,1980-01-01,
599,UK,PR,1980-01-01,0.45507147323348185
600,AT,PR,1979-01-01,
601,BE,PR,1979-01-01,
602,DE,PR,1979-01-01,
603,DK,PR,1979-01-01,0.059200068368526225
604,EL,PR,1979-01-01,
605,ES,PR,1979-01-01,
606,FI,PR,1979-01-01,
607,FR,PR,1979-01-01,0.4585859441067423
608,IE,PR,1979-01-01,
609,IT,PR,1979-01-01,
610,LU,PR,1979-01-01,
611,NL,PR,1979-01-01,
612,PT,PR,1979-01-01,
613,SE,PR,1979-01-01,
614,UK,PR,1979-01-01,0.4822139875247314
615,AT,PR,1978-01-01,
616,BE,PR,1978-01-01,
617,DE,PR,1978-01-01,
618,DK,PR,1978-01-01,0.0590835795073602
619,EL,PR,1978-01-01,
620,ES,PR,1978-01-01,
621,FI,PR,1978-01-01,
622,FR,PR,1978-01-01,0.45909415292750433
623,IE,PR,1978-01-01,
624,IT,PR,1978-01-01,
625,LU,PR,1978-01-01,
626,NL,PR,1978-01-01,
627,PT,PR,1978-01-01,
628,SE,PR,1978-01-01,
629,UK,PR,1978-01-01,0.48182226756513546
630,AT,PR,1977-01-01,
631,BE,PR,1977-01-01,
632,DE,PR,1977-01-01,
633,DK,PR,1977-01-01,0.060098176904381996
634,EL,PR,1977-01-01,
635,ES,PR,1977-01-01,
636,FI,PR,1977-01-01,
637,FR,PR,1977-01-01,0.45910835270640765
638,IE,PR,1977-01-01,
639,IT,PR,1977-01-01,
640,LU,PR,1977-01-01,
641,NL,PR,1977-01-01,
642,PT,PR,1977-01-01,
643,SE,PR,1977-01-01,
644,UK,PR,1977-01-01,0.48079347038921044
645,AT,PR,1976-01-01,
646,BE,PR,1976-01-01,
647,DE,PR,1976-01-01,
648,DK,PR,1976-01-01,0.060694793463757654
649,EL,PR,1976-01-01,
650,ES,PR,1976-01-01,
651,FI,PR,1976-01-01,
652,FR,PR,1976-01-01,0.45652269837647486
653,IE,PR,1976-01-01,
654,IT,PR,1976-01-01,
655,LU,PR,1976-01-01,
656,NL,PR,1976-01-01,
657,PT,PR,1976-01-01,
658,SE,PR,1976-01-01,
659,UK,PR,1976-01-01,0.4827825081597675
660,AT,PR,1975-01-01,
661,BE,PR,1975-01-01,
662,DE,PR,1975-01-01,
663,DK,PR,1975-01-01,0.05944643830510061
664,EL,PR,1975-01-01,
665,ES,PR,1975-01-01,
666,FI,PR,1975-01-01,
667,FR,PR,1975-01-01,0.4538506282433201
668,IE,PR,1975-01-01,
669,IT,PR,1975-01-01,
670,LU,PR,1975-01-01,
671,NL,PR,1975-01-01,
672,PT,PR,1975-01-01,
673,SE,PR,1975-01-01,
674,UK,PR,1975-01-01,0.48670293345157917
